%!PS-Adobe-3.0 EPSF-3.0
%%Creator: cairo 1.16.0 (https://cairographics.org)
%%CreationDate: Wed Nov 23 08:13:47 2022
%%Pages: 1
%%DocumentData: Clean7Bit
%%LanguageLevel: 2
%%BoundingBox: 0 0 1000 865
%%EndComments
%%BeginProlog
50 dict begin
/q { gsave } bind def
/Q { grestore } bind def
/cm { 6 array astore concat } bind def
/w { setlinewidth } bind def
/J { setlinecap } bind def
/j { setlinejoin } bind def
/M { setmiterlimit } bind def
/d { setdash } bind def
/m { moveto } bind def
/l { lineto } bind def
/c { curveto } bind def
/h { closepath } bind def
/re { exch dup neg 3 1 roll 5 3 roll moveto 0 rlineto
      0 exch rlineto 0 rlineto closepath } bind def
/S { stroke } bind def
/f { fill } bind def
/f* { eofill } bind def
/n { newpath } bind def
/W { clip } bind def
/W* { eoclip } bind def
/BT { } bind def
/ET { } bind def
/BDC { mark 3 1 roll /BDC pdfmark } bind def
/EMC { mark /EMC pdfmark } bind def
/cairo_store_point { /cairo_point_y exch def /cairo_point_x exch def } def
/Tj { show currentpoint cairo_store_point } bind def
/TJ {
  {
    dup
    type /stringtype eq
    { show } { -0.001 mul 0 cairo_font_matrix dtransform rmoveto } ifelse
  } forall
  currentpoint cairo_store_point
} bind def
/cairo_selectfont { cairo_font_matrix aload pop pop pop 0 0 6 array astore
    cairo_font exch selectfont cairo_point_x cairo_point_y moveto } bind def
/Tf { pop /cairo_font exch def /cairo_font_matrix where
      { pop cairo_selectfont } if } bind def
/Td { matrix translate cairo_font_matrix matrix concatmatrix dup
      /cairo_font_matrix exch def dup 4 get exch 5 get cairo_store_point
      /cairo_font where { pop cairo_selectfont } if } bind def
/Tm { 2 copy 8 2 roll 6 array astore /cairo_font_matrix exch def
      cairo_store_point /cairo_font where { pop cairo_selectfont } if } bind def
/g { setgray } bind def
/rg { setrgbcolor } bind def
/d1 { setcachedevice } bind def
/cairo_data_source {
  CairoDataIndex CairoData length lt
    { CairoData CairoDataIndex get /CairoDataIndex CairoDataIndex 1 add def }
    { () } ifelse
} def
/cairo_flush_ascii85_file { cairo_ascii85_file status { cairo_ascii85_file flushfile } if } def
/cairo_image { image cairo_flush_ascii85_file } def
/cairo_imagemask { imagemask cairo_flush_ascii85_file } def
%%EndProlog
%%BeginSetup
%%EndSetup
%%Page: 1 1
%%BeginPageSetup
%%PageBoundingBox: 0 0 1000 865
%%EndPageSetup
q 0 0 1000 865 rectclip
1 0 0 -1 0 872 cm q
Q q
0.453 7 998.988 176 re W n
0.960784 0.992157 0 rg
14.199 136.992 m 14.684 142.457 16.742 147.688 20.375 152.672 c 23.98 157.652
 28.961 161.703 35.328 164.824 c 41.664 167.977 48.93 169.555 57.133 169.555
 c 69.516 169.555 79.852 166.77 88.148 161.207 c 96.41 155.676 100.547 146.883
 100.547 134.824 c 100.547 127.746 98.535 121.832 94.516 117.07 c 90.496
 112.344 85.508 108.566 79.562 105.734 c 73.613 102.938 65.492 99.691 55.203
 95.992 c 44.109 92.133 35.23 88.547 28.574 85.234 c 21.887 81.953 16.242
 77.504 11.645 71.875 c 7.078 66.242 4.793 59.008 4.793 50.168 c 4.793 43.09
 6.805 36.371 10.824 30.004 c 14.844 23.668 20.922 18.539 29.059 14.617 
c 37.16 10.66 47.16 8.684 59.062 8.684 c 66.938 8.684 73.449 9.246 78.598
 10.371 c 83.746 11.496 88.969 13.348 94.273 15.918 c 90.176 28.699 l 81.008
 24.035 70.797 21.707 59.543 21.707 c 47.16 21.707 37.273 24.277 29.879 
29.426 c 22.484 34.57 18.785 41.727 18.785 50.891 c 18.785 56.68 20.633 
61.535 24.332 65.457 c 28.031 69.414 32.578 72.598 37.98 75.008 c 43.352
 77.422 50.859 80.316 60.508 83.691 c 72.246 87.711 81.734 91.441 88.969
 94.883 c 96.203 98.355 102.363 103.262 107.441 109.594 c 112.492 115.961
 115.016 123.969 115.016 133.617 c 115.016 148.41 110.324 160.258 100.93
 169.168 c 91.512 178.105 76.992 182.578 57.375 182.578 c 45.473 182.578
 35.312 180.359 26.887 175.922 c 18.43 171.516 11.996 165.805 7.594 158.797
 c 3.156 151.816 0.777 144.551 0.453 136.992 c h
243.328 135.305 m 243.328 151.547 238.391 163.477 228.52 171.098 c 218.613
 178.75 206.75 182.578 192.918 182.578 c 184.238 182.578 176.035 181 168.316
 177.852 c 160.602 174.73 154.297 169.637 149.41 162.559 c 144.488 155.48
 142.027 146.398 142.027 135.305 c 142.027 57.645 l 142.027 41.082 146.562
 28.543 155.633 20.02 c 164.734 11.496 177.242 7.234 193.16 7.234 c 209.078
 7.234 221.426 11.734 230.207 20.742 c 238.953 29.746 243.328 42.125 243.328
 57.883 c h
230.062 55.473 m 230.062 43.738 226.652 34.891 219.836 28.941 c 212.984
 22.996 203.93 20.02 192.68 20.02 c 181.426 20.02 172.418 22.996 165.664
 28.941 c 158.91 34.891 155.535 43.738 155.535 55.473 c 155.535 135.062 
l 155.535 146.48 159.023 155.117 166.004 160.969 c 173.012 166.852 181.906
 169.793 192.68 169.793 c 203.613 169.793 212.586 166.934 219.594 161.207
 c 226.574 155.516 230.062 146.723 230.062 134.824 c h
278.059 179.926 m 278.059 11.094 l 358.613 11.094 l 358.613 23.879 l 291.562
 23.879 l 291.562 80.316 l 332.805 80.316 l 327.258 93.578 l 291.562 93.578
 l 291.562 179.926 l h
407.574 179.926 m 407.574 23.152 l 366.57 23.152 l 366.57 11.094 l 463.527
 11.094 l 463.527 23.152 l 421.078 23.152 l 421.078 179.926 l h
590.391 179.926 m 566.516 35.453 l 542.637 179.926 l 522.137 179.926 l 
482.34 11.094 l 496.812 11.094 l 531.301 163.281 l 557.109 11.094 l 575.922
 11.094 l 601.727 163.281 l 635.734 11.094 l 650.207 11.094 l 610.891 179.926
 l h
747.16 179.926 m 727.867 120.832 l 672.879 120.832 l 654.066 179.926 l 
639.836 179.926 l 693.859 11.094 l 706.645 11.094 l 761.633 179.926 l h
700.133 32.078 m 676.734 107.57 l 724.25 107.57 l h
874.023 179.926 m 853.523 120.109 l 850.629 120.594 847.414 120.832 843.879
 120.832 c 796.363 120.832 l 796.363 179.926 l 782.859 179.926 l 782.859
 11.094 l 842.188 11.094 l 857.465 11.094 868.832 15.758 876.293 25.082 
c 883.785 34.406 887.531 46.949 887.531 62.707 c 887.531 74.766 886.195 
85.461 883.527 94.785 c 880.891 104.109 875.148 111.188 866.309 116.012 
c 887.773 179.926 l h
844.117 107.57 m 853.125 107.57 859.828 105.156 864.234 100.332 c 868.672
 95.508 871.406 90.043 872.434 83.934 c 873.496 77.82 874.023 70.992 874.023
 63.434 c 874.023 50.25 871.289 40.359 865.824 33.766 c 860.359 27.172 852.801
 23.879 843.152 23.879 c 796.363 23.879 l 796.363 107.57 l h
918.887 179.926 m 918.887 11.094 l 999.441 11.094 l 999.441 23.637 l 932.391
 23.637 l 932.391 80.316 l 978.457 80.316 l 973.875 93.578 l 932.391 93.578
 l 932.391 167.863 l 998.961 167.863 l 998.961 179.926 l h
918.887 179.926 m f
Q q
0.984314 0.917647 0.670588 rg
10.344 369.738 m 10.344 200.906 l 90.898 200.906 l 90.898 213.691 l 23.848
 213.691 l 23.848 270.129 l 65.09 270.129 l 59.543 283.391 l 23.848 283.391
 l 23.848 369.738 l h
215.348 325.117 m 215.348 341.359 210.414 353.289 200.539 360.91 c 190.637
 368.562 178.77 372.391 164.941 372.391 c 156.258 372.391 148.059 370.812
 140.34 367.664 c 132.621 364.543 126.316 359.449 121.434 352.371 c 116.512
 345.293 114.051 336.211 114.051 325.117 c 114.051 247.457 l 114.051 230.895
 118.602 218.355 127.703 209.832 c 136.77 201.309 149.266 197.047 165.184
 197.047 c 181.102 197.047 193.434 201.547 202.18 210.555 c 210.961 219.559
 215.348 231.938 215.348 247.695 c h
202.086 245.285 m 202.086 233.551 198.672 224.703 191.859 218.754 c 185.008
 212.809 175.953 209.832 164.699 209.832 c 153.445 209.832 144.441 212.809
 137.688 218.754 c 130.934 224.703 127.559 233.551 127.559 245.285 c 127.559
 324.875 l 127.559 336.293 131.066 344.93 138.074 350.781 c 145.055 356.664
 153.93 359.605 164.699 359.605 c 175.637 359.605 184.609 356.746 191.617
 351.02 c 198.598 345.328 202.086 336.535 202.086 324.637 c h
341.246 369.738 m 320.746 309.922 l 317.852 310.406 314.637 310.645 311.102
 310.645 c 263.586 310.645 l 263.586 369.738 l 250.078 369.738 l 250.078
 200.906 l 309.41 200.906 l 324.688 200.906 336.07 205.57 343.562 214.895
 c 351.027 224.219 354.754 236.762 354.754 252.52 c 354.754 264.578 353.438
 275.273 350.797 284.598 c 348.133 293.922 342.371 301 333.531 305.824 c
 354.996 369.738 l h
311.34 297.383 m 320.348 297.383 327.066 294.969 331.504 290.145 c 335.906
 285.32 338.645 279.855 339.703 273.746 c 340.73 267.633 341.246 260.805
 341.246 253.246 c 341.246 240.062 338.512 230.172 333.047 223.578 c 327.582
 216.984 320.023 213.691 310.375 213.691 c 263.586 213.691 l 263.586 297.383
 l h
544.566 369.738 m 525.273 310.645 l 470.281 310.645 l 451.469 369.738 l
 437.238 369.738 l 491.266 200.906 l 504.047 200.906 l 559.039 369.738 l
 h
497.535 221.891 m 474.141 297.383 l 521.652 297.383 l h
497.535 221.891 m f
0.960784 0.992157 0 rg
10.344 559.551 m 10.344 390.719 l 63.645 390.719 l 76.828 390.719 87.199
 394.098 94.758 400.848 c 102.316 407.602 106.094 417.891 106.094 431.723
 c 106.094 437.992 105.047 443.941 102.957 449.57 c 100.867 455.199 96.605
 460.18 90.176 464.523 c 89.934 465.004 l 89.934 465.246 l 97.008 468.465
 102.922 473.688 107.684 480.922 c 112.41 488.16 114.773 497.566 114.773
 509.141 c 114.773 522.973 111.047 534.816 103.586 544.691 c 96.094 554.594
 83.504 559.551 65.816 559.551 c h
63.16 459.941 m 72.168 459.941 79.238 457.527 84.387 452.703 c 89.531 447.879
 92.105 440.887 92.105 431.723 c 92.105 412.91 81.973 403.504 61.715 403.504
 c 23.848 403.504 l 23.848 459.941 l h
65.332 546.766 m 76.102 546.766 84.629 543.871 90.898 538.082 c 97.168 
532.297 100.305 522.324 100.305 508.176 c 100.305 496.922 97.25 488.27 91.141
 482.227 c 85.027 476.211 77.793 473.203 69.434 473.203 c 23.848 473.203
 l 23.848 546.766 l h
141.547 559.551 m 141.547 390.719 l 222.102 390.719 l 222.102 403.262 l
 155.055 403.262 l 155.055 459.941 l 201.121 459.941 l 196.535 473.203 l
 155.055 473.203 l 155.055 547.488 l 221.621 547.488 l 221.621 559.551 l
 h
275.887 559.551 m 275.887 402.777 l 234.887 402.777 l 234.887 390.719 l
 331.84 390.719 l 331.84 402.777 l 289.395 402.777 l 289.395 559.551 l h
372.844 559.551 m 372.844 402.777 l 331.84 402.777 l 331.84 390.719 l 428.797
 390.719 l 428.797 402.777 l 386.348 402.777 l 386.348 559.551 l h
447.609 559.551 m 447.609 390.719 l 528.168 390.719 l 528.168 403.262 l
 461.117 403.262 l 461.117 459.941 l 507.184 459.941 l 502.602 473.203 l
 461.117 473.203 l 461.117 547.488 l 527.684 547.488 l 527.684 559.551 l
 h
650.93 559.551 m 630.43 499.734 l 627.535 500.219 624.316 500.457 620.781
 500.457 c 573.27 500.457 l 573.27 559.551 l 559.762 559.551 l 559.762 390.719
 l 619.094 390.719 l 634.371 390.719 645.754 395.383 653.246 404.707 c 660.707
 414.031 664.438 426.574 664.438 442.332 c 664.438 454.391 663.117 465.086
 660.48 474.41 c 657.812 483.734 652.055 490.812 643.211 495.637 c 664.676
 559.551 l h
621.023 487.195 m 630.027 487.195 636.746 484.781 641.184 479.957 c 645.59
 475.133 648.324 469.668 649.387 463.559 c 650.414 457.445 650.93 450.617
 650.93 443.059 c 650.93 429.875 648.195 419.984 642.73 413.391 c 637.266
 406.797 629.703 403.504 620.059 403.504 c 573.27 403.504 l 573.27 487.195
 l h
621.023 487.195 m f
Q q
0.453 576 758.547 177 re W n
0.984314 0.917647 0.670588 rg
14.199 706.43 m 14.684 711.895 16.742 717.125 20.375 722.109 c 23.98 727.09
 28.961 731.145 35.328 734.262 c 41.664 737.414 48.93 738.992 57.133 738.992
 c 69.516 738.992 79.852 736.207 88.148 730.645 c 96.41 725.113 100.547 
716.32 100.547 704.262 c 100.547 697.184 98.535 691.27 94.516 686.508 c 
90.496 681.781 85.508 678.004 79.562 675.172 c 73.613 672.375 65.492 669.129
 55.203 665.43 c 44.109 661.57 35.23 657.988 28.574 654.672 c 21.887 651.391
 16.242 646.941 11.645 641.312 c 7.078 635.68 4.793 628.445 4.793 619.605
 c 4.793 612.527 6.805 605.809 10.824 599.441 c 14.844 593.109 20.922 587.977
 29.059 584.055 c 37.16 580.098 47.16 578.121 59.062 578.121 c 66.938 578.121
 73.449 578.684 78.598 579.809 c 83.746 580.934 88.969 582.785 94.273 585.355
 c 90.176 598.141 l 81.008 593.473 70.797 591.145 59.543 591.145 c 47.16
 591.145 37.273 593.715 29.879 598.863 c 22.484 604.008 18.785 611.164 18.785
 620.328 c 18.785 626.117 20.633 630.973 24.332 634.895 c 28.031 638.852
 32.578 642.035 37.98 644.445 c 43.352 646.859 50.859 649.754 60.508 653.129
 c 72.246 657.148 81.734 660.879 88.969 664.32 c 96.203 667.793 102.363 
672.699 107.441 679.031 c 112.492 685.398 115.016 693.406 115.016 703.055
 c 115.016 717.848 110.324 729.695 100.93 738.605 c 91.512 747.543 76.992
 752.016 57.375 752.016 c 45.473 752.016 35.312 749.797 26.887 745.359 c
 18.43 740.953 11.996 735.242 7.594 728.234 c 3.156 721.254 0.777 713.988
 0.453 706.43 c h
243.328 704.742 m 243.328 720.984 238.391 732.914 228.52 740.535 c 218.613
 748.191 206.75 752.016 192.918 752.016 c 184.238 752.016 176.035 750.438
 168.316 747.289 c 160.602 744.168 154.297 739.074 149.41 731.996 c 144.488
 724.922 142.027 715.836 142.027 704.742 c 142.027 627.082 l 142.027 610.52
 146.562 597.98 155.633 589.457 c 164.734 580.934 177.242 576.672 193.16
 576.672 c 209.078 576.672 221.426 581.172 230.207 590.18 c 238.953 599.184
 243.328 611.562 243.328 627.32 c h
230.062 624.91 m 230.062 613.176 226.652 604.328 219.836 598.379 c 212.984
 592.434 203.93 589.457 192.68 589.457 c 181.426 589.457 172.418 592.434
 165.664 598.379 c 158.91 604.328 155.535 613.176 155.535 624.91 c 155.535
 704.5 l 155.535 715.918 159.023 724.555 166.004 730.406 c 173.012 736.289
 181.906 739.23 192.68 739.23 c 203.613 739.23 212.586 736.371 219.594 730.645
 c 226.574 724.953 230.062 716.16 230.062 704.262 c h
362.23 743.816 m 347.918 749.121 334.578 751.773 322.195 751.773 c 308.207
 751.773 296.871 748.074 288.188 740.68 c 279.504 733.285 275.164 721.465
 275.164 705.227 c 275.164 627.805 l 275.164 615.586 276.898 606.34 280.371
 600.066 c 283.812 593.797 289.07 588.492 296.145 584.148 c 303.223 580.133
 311.906 578.121 322.195 578.121 c 334.734 578.121 346.07 580.773 356.203
 586.078 c 352.344 595.246 l 343.176 591.867 334.496 590.18 326.293 590.18
 c 316.488 590.18 307.77 592.59 300.148 597.414 c 292.496 602.238 288.668
 611.645 288.668 625.633 c 288.668 704.742 l 288.668 715.836 291.562 724.391
 297.352 730.406 c 303.141 736.449 311.824 739.473 323.398 739.473 c 333.531
 739.473 345.508 737.145 359.336 732.48 c h
396.48 749.363 m 396.48 592.832 l 380.32 592.352 l 380.32 580.531 l 409.984
 580.531 l 409.984 749.363 l h
446.887 749.363 m 446.887 580.531 l 527.441 580.531 l 527.441 593.074 l
 460.395 593.074 l 460.395 649.754 l 506.461 649.754 l 501.879 663.016 l
 460.395 663.016 l 460.395 737.301 l 526.961 737.301 l 526.961 749.363 l
 h
581.227 749.363 m 581.227 592.59 l 540.227 592.59 l 540.227 580.531 l 637.184
 580.531 l 637.184 592.59 l 594.734 592.59 l 594.734 749.363 l h
730.277 742.125 m 734.461 740.52 737.949 737.578 740.746 733.297 c 743.578
 729.055 744.992 722.191 744.992 712.703 c 744.992 678.453 l 740.648 682.312
 734.863 685.242 727.625 687.234 c 720.391 689.258 713.477 690.27 706.883
 690.27 c 689.844 690.27 676.363 686.043 666.461 677.586 c 656.586 669.156
 651.652 656.664 651.652 640.105 c 651.652 580.531 l 665.16 580.531 l 665.16
 642.516 l 665.16 653.77 669.02 662.344 676.734 668.227 c 684.453 674.078
 694.5 677.008 706.883 677.008 c 716.371 677.008 724.648 674.996 731.727
 670.977 c 738.801 666.957 743.223 660.93 744.992 652.887 c 744.992 580.531
 l 758.738 580.531 l 758.738 711.738 l 758.738 723.473 756.535 732.672 752.129
 739.328 c 747.691 746.02 741.457 749.926 733.414 751.051 c h
730.277 742.125 m f
Q q
0.453 800.645 586.508 71.355 re W n
0.984314 0.917647 0.670588 rg
32.402 858.434 m 32.402 862.727 30.902 866.133 27.898 868.641 c 24.887 
871.152 20.77 872.41 15.551 872.41 c 9.469 872.41 4.547 871.383 0.781 869.336
 c 0.781 861.703 l 5.207 864.348 9.965 865.668 15.055 865.668 c 18.094 865.668
 20.406 865.074 21.992 863.883 c 23.578 862.695 24.371 861.074 24.371 859.027
 c 24.371 856.648 23.5 854.797 21.754 853.477 c 19.996 852.156 17.07 850.668
 12.973 849.016 c 9.207 847.562 6.188 845.746 3.914 843.562 c 1.625 841.383
 0.484 838.441 0.484 834.742 c 0.484 830.578 2.055 827.254 5.203 824.77 
c 8.332 822.301 12.246 821.062 16.938 821.062 c 22.156 821.062 26.355 821.789
 29.527 823.242 c 29.527 830.68 l 26.484 828.828 22.324 827.902 17.035 827.902
 c 14.395 827.902 12.297 828.512 10.754 829.727 c 9.191 830.957 8.414 832.527
 8.414 834.445 c 8.414 835.633 8.645 836.672 9.105 837.559 c 9.57 838.457
 10.48 839.336 11.844 840.195 c 13.191 841.055 14.184 841.629 14.816 841.918
 c 15.438 842.223 16.805 842.836 18.918 843.762 c 23.148 845.48 26.453 847.43
 28.832 849.609 c 31.211 851.793 32.402 854.73 32.402 858.434 c h
51.133 864.379 m 51.133 871.812 l 43.305 871.812 l 43.305 801.734 l 51.133
 801.734 l 51.133 829.094 l 54.77 823.543 59.855 820.766 66.398 820.766 
c 72.742 820.766 77.93 823.191 81.961 828.043 c 85.992 832.906 88.008 839.27
 88.008 847.133 c 88.008 854.203 86.105 860.215 82.297 865.172 c 78.504 
870.129 73.273 872.605 66.598 872.605 c 59.855 872.605 54.703 869.863 51.133
 864.379 c h
51.133 846.34 m 51.133 853.016 52.57 857.871 55.438 860.91 c 58.316 863.949
 61.809 865.469 65.902 865.469 c 69.934 865.469 73.273 863.785 75.914 860.414
 c 78.559 857.043 79.879 852.648 79.879 847.23 c 79.879 841.02 78.504 836.242
 75.758 832.898 c 73.02 829.566 69.57 827.902 65.406 827.902 c 61.84 827.902
 58.57 829.391 55.594 832.363 c 52.621 835.336 51.133 839.996 51.133 846.34
 c h
129.738 858.434 m 129.738 862.727 128.23 866.133 125.219 868.641 c 122.219
 871.152 118.102 872.41 112.867 872.41 c 106.789 872.41 101.871 871.383 
98.117 869.336 c 98.117 861.703 l 102.531 864.348 107.285 865.668 112.371
 865.668 c 115.426 865.668 117.738 865.074 119.312 863.883 c 120.91 862.695
 121.711 861.074 121.711 859.027 c 121.711 856.648 120.832 854.797 119.074
 853.477 c 117.328 852.156 114.406 850.668 110.309 849.016 c 106.531 847.562
 103.504 845.746 101.23 843.562 c 98.945 841.383 97.801 838.441 97.801 834.742
 c 97.801 830.578 99.375 827.254 102.52 824.77 c 105.652 822.301 109.57 
821.062 114.277 821.062 c 119.484 821.062 123.68 821.789 126.863 823.242
 c 126.863 830.68 l 123.824 828.828 119.656 827.902 114.355 827.902 c 111.711
 827.902 109.617 828.512 108.07 829.727 c 106.512 830.957 105.73 832.527
 105.73 834.445 c 105.73 835.633 105.961 836.672 106.426 837.559 c 106.887
 838.457 107.801 839.336 109.16 840.195 c 110.508 841.055 111.5 841.629 
112.133 841.918 c 112.754 842.223 114.129 842.836 116.258 843.762 c 120.473
 845.48 123.77 847.43 126.148 849.609 c 128.543 851.793 129.738 854.73 129.738
 858.434 c h
145.48 862.594 m 146.602 863.719 147.164 865.105 147.164 866.758 c 147.164
 868.41 146.602 869.797 145.48 870.922 c 144.355 872.047 142.969 872.605
 141.316 872.605 c 139.664 872.605 138.277 872.047 137.152 870.922 c 136.031
 869.797 135.469 868.41 135.469 866.758 c 135.469 865.105 136.031 863.719
 137.152 862.594 c 138.277 861.473 139.664 860.91 141.316 860.91 c 142.969
 860.91 144.355 861.473 145.48 862.594 c h
165.008 821.559 m 165.008 871.812 l 157.176 871.812 l 157.176 821.559 l
 h
164.707 802.133 m 165.699 803.121 166.195 804.344 166.195 805.797 c 166.195
 807.254 165.699 808.453 164.707 809.406 c 163.719 810.371 162.496 810.855
 161.043 810.855 c 159.586 810.855 158.379 810.371 157.414 809.406 c 156.461
 808.453 155.984 807.254 155.984 805.797 c 155.984 804.344 156.461 803.121
 157.414 802.133 c 158.379 801.141 159.586 800.645 161.043 800.645 c 162.496
 800.645 163.719 801.141 164.707 802.133 c h
185.027 847.23 m 185.027 852.648 186.352 857.043 188.992 860.414 c 191.637
 863.785 194.973 865.469 199.004 865.469 c 203.102 865.469 206.586 863.949
 209.453 860.91 c 212.332 857.871 213.773 853.016 213.773 846.34 c 213.773
 839.996 212.289 835.336 209.312 832.363 c 206.34 829.391 203.07 827.902
 199.5 827.902 c 195.336 827.902 191.883 829.566 189.133 832.898 c 186.398
 836.242 185.027 841.02 185.027 847.23 c h
221.605 801.734 m 221.605 871.812 l 213.773 871.812 l 213.773 864.379 l
 210.207 869.863 205.051 872.605 198.312 872.605 c 191.637 872.605 186.398
 870.129 182.59 865.172 c 178.797 860.215 176.902 854.203 176.902 847.133
 c 176.902 839.27 178.918 832.906 182.945 828.043 c 186.977 823.191 192.164
 820.766 198.508 820.766 c 205.051 820.766 210.141 823.574 213.773 829.191
 c 213.773 801.734 l h
244.305 821.559 m 244.305 871.812 l 236.473 871.812 l 236.473 821.559 l
 h
244.008 802.133 m 244.996 803.121 245.492 804.344 245.492 805.797 c 245.492
 807.254 244.996 808.453 244.008 809.406 c 243.016 810.371 241.793 810.855
 240.34 810.855 c 238.887 810.855 237.676 810.371 236.711 809.406 c 235.758
 808.453 235.285 807.254 235.285 805.797 c 235.285 804.344 235.758 803.121
 236.711 802.133 c 237.676 801.141 238.887 800.645 240.34 800.645 c 241.793
 800.645 243.016 801.141 244.008 802.133 c h
264.309 862.594 m 265.43 863.719 265.992 865.105 265.992 866.758 c 265.992
 868.41 265.43 869.797 264.309 870.922 c 263.184 872.047 261.797 872.605
 260.145 872.605 c 258.492 872.605 257.105 872.047 255.98 870.922 c 254.855
 869.797 254.297 868.41 254.297 866.758 c 254.297 865.105 254.855 863.719
 255.98 862.594 c 257.105 861.473 258.492 860.91 260.145 860.91 c 261.797
 860.91 263.184 861.473 264.309 862.594 c h
315.254 837.219 m 315.254 871.812 l 307.426 871.812 l 307.426 839.301 l
 307.426 835.602 306.488 832.773 304.609 830.816 c 302.719 828.875 300.254
 827.902 297.215 827.902 c 293.449 827.902 290.199 829.355 287.461 832.266
 c 284.711 835.172 283.34 839.203 283.34 844.355 c 283.34 871.812 l 275.605
 871.812 l 275.605 821.559 l 283.34 821.559 l 283.34 830.281 l 286.312 824.004
 291.598 820.863 299.199 820.863 c 304.086 820.863 307.988 822.352 310.895
 825.324 c 313.801 828.301 315.254 832.266 315.254 837.219 c h
354.309 863.09 m 354.309 870.523 l 352.129 871.715 349.684 872.309 346.977
 872.309 c 337.062 872.309 332.105 867.254 332.105 857.145 c 332.105 827.902
 l 324.078 827.902 l 324.078 821.559 l 332.105 821.559 l 332.105 809.07 
l 339.938 809.07 l 339.938 821.559 l 353.812 821.559 l 353.812 827.902 l
 339.938 827.902 l 339.938 857.344 l 339.938 862.695 342.449 865.371 347.469
 865.371 c 350.047 865.371 352.328 864.609 354.309 863.09 c h
405.359 837.219 m 405.359 871.812 l 397.527 871.812 l 397.527 839.301 l
 397.527 835.602 396.582 832.773 394.691 830.816 c 392.816 828.875 390.355
 827.902 387.316 827.902 c 383.551 827.902 380.293 829.355 377.543 832.266
 c 374.809 835.172 373.441 839.203 373.441 844.355 c 373.441 871.812 l 365.707
 871.812 l 365.707 821.559 l 373.441 821.559 l 373.441 830.281 l 376.414
 824.004 381.699 820.863 389.301 820.863 c 394.191 820.863 398.09 822.352
 400.996 825.324 c 403.902 828.301 405.359 832.266 405.359 837.219 c h
458.27 821.559 m 458.27 871.812 l 450.438 871.812 l 450.438 863.09 l 447.797
 869.305 442.543 872.41 434.68 872.41 c 429.723 872.41 425.809 870.934 422.941
 867.988 c 420.062 865.055 418.621 861.109 418.621 856.152 c 418.621 821.559
 l 426.449 821.559 l 426.449 854.172 l 426.449 857.805 427.375 860.582 429.227
 862.496 c 431.078 864.414 433.586 865.371 436.758 865.371 c 440.922 865.371
 444.246 863.918 446.73 861.008 c 449.203 858.102 450.438 854.172 450.438
 849.215 c 450.438 821.559 l h
477.895 862.594 m 479.02 863.719 479.582 865.105 479.582 866.758 c 479.582
 868.41 479.02 869.797 477.895 870.922 c 476.773 872.047 475.383 872.605
 473.73 872.605 c 472.078 872.605 470.691 872.047 469.57 870.922 c 468.445
 869.797 467.883 868.41 467.883 866.758 c 467.883 865.105 468.445 863.719
 469.57 862.594 c 470.691 861.473 472.078 860.91 473.73 860.91 c 475.383
 860.91 476.773 861.473 477.895 862.594 c h
528.844 837.219 m 528.844 871.812 l 521.012 871.812 l 521.012 839.301 l
 521.012 835.602 520.07 832.773 518.18 830.816 c 516.301 828.875 513.844
 827.902 510.805 827.902 c 507.039 827.902 503.781 829.355 501.031 832.266
 c 498.293 835.172 496.926 839.203 496.926 844.355 c 496.926 871.812 l 489.195
 871.812 l 489.195 821.559 l 496.926 821.559 l 496.926 830.281 l 499.898
 824.004 505.188 820.863 512.785 820.863 c 517.676 820.863 521.574 822.352
 524.484 825.324 c 527.391 828.301 528.844 832.266 528.844 837.219 c h
586.93 846.836 m 586.93 854.301 584.816 860.48 580.586 865.371 c 576.355
 870.262 570.543 872.707 563.141 872.707 c 555.938 872.707 550.234 870.273
 546.031 865.41 c 541.828 860.559 539.727 854.434 539.727 847.035 c 539.727
 839.566 541.895 833.336 546.23 828.34 c 550.566 823.355 556.203 820.863
 563.141 820.863 c 570.738 820.863 576.602 823.309 580.723 828.199 c 584.859
 833.09 586.93 839.301 586.93 846.836 c h
547.875 846.934 m 547.875 852.156 549.262 856.594 552.039 860.258 c 554.812
 863.93 558.516 865.766 563.141 865.766 c 568.164 865.766 572.027 863.965
 574.738 860.355 c 577.445 856.762 578.801 852.285 578.801 846.934 c 578.801
 841.383 577.508 836.805 574.914 833.195 c 572.352 829.602 568.426 827.805
 563.141 827.805 c 558.383 827.805 554.648 829.652 551.941 833.355 c 549.23
 837.055 547.875 841.582 547.875 846.934 c h
547.875 846.934 m f
Q Q
showpage
%%Trailer
end
%%EOF
