<svg width="68" height="51" viewBox="0 0 68 51" fill="none" xmlns="http://www.w3.org/2000/svg">
<path d="M15.8258 28.4552L16.7527 30.2275L16.7527 30.2275L15.8258 28.4552ZM18.9668 24.3064L17.0095 23.8951L17.0095 23.8951L18.9668 24.3064ZM10.1742 28.4552L11.1012 26.683L11.1012 26.683L10.1742 28.4552ZM7.03322 24.3064L8.99046 23.8951L8.99046 23.8951L7.03322 24.3064ZM6.90332 23.6883L4.94608 24.0996L4.94608 24.0997L6.90332 23.6883ZM8.04117 18.4302L6.42909 17.2464L6.42909 17.2464L8.04117 18.4302ZM8.25156 18.1436L9.86364 19.3274L9.86364 19.3274L8.25156 18.1436ZM17.7484 18.1436L19.3605 16.9599L19.3605 16.9599L17.7484 18.1436ZM17.9588 18.4302L16.3467 19.6139L16.3467 19.6139L17.9588 18.4302ZM19.0967 23.6883L21.0539 24.0997L21.0539 24.0997L19.0967 23.6883ZM15.3107 42.9998L15.3107 44.9998C16.246 44.9998 17.0564 44.3515 17.2618 43.439L15.3107 42.9998ZM20.8751 35.0649L21.9527 36.7498C22.5123 36.3919 22.8577 35.7795 22.8744 35.1155C22.8912 34.4515 22.5773 33.8224 22.0365 33.4367L20.8751 35.0649ZM19.204 34.1696L18.491 36.0382L18.491 36.0382L19.204 34.1696ZM18.7822 34.0086L19.4953 32.1401L19.4952 32.1401L18.7822 34.0086ZM7.21782 34.0086L7.93088 35.8772L7.93089 35.8772L7.21782 34.0086ZM6.79598 34.1696L6.08292 32.301L6.08292 32.301L6.79598 34.1696ZM52.6894 43L50.7382 43.4392C50.9436 44.3517 51.754 45 52.6894 45V43ZM47.1251 35.065L45.9637 33.4368C45.4229 33.8225 45.1089 34.4515 45.1257 35.1156C45.1425 35.7796 45.4879 36.392 46.0474 36.7499L47.1251 35.065ZM48.796 34.1698L49.509 36.0384L49.5091 36.0384L48.796 34.1698ZM49.2178 34.0089L48.5048 32.1403L48.5048 32.1403L49.2178 34.0089ZM60.7822 34.0089L60.0691 35.8774L60.0691 35.8774L60.7822 34.0089ZM61.204 34.1698L61.9171 32.3013L61.9171 32.3013L61.204 34.1698ZM52.1742 28.4555L53.1012 26.6832L53.1012 26.6832L52.1742 28.4555ZM49.0332 24.3066L50.9905 23.8953L50.9905 23.8953L49.0332 24.3066ZM57.8258 28.4555L56.8988 26.6832L56.8988 26.6832L57.8258 28.4555ZM60.9668 24.3066L59.0095 23.8953L59.0095 23.8953L60.9668 24.3066ZM61.0967 23.6885L59.1394 23.2772L59.1394 23.2772L61.0967 23.6885ZM59.9588 18.4304L61.5709 17.2467L61.5709 17.2467L59.9588 18.4304ZM59.7484 18.1439L58.1364 19.3276L58.1364 19.3276L59.7484 18.1439ZM50.2516 18.1439L51.8636 19.3276L51.8636 19.3276L50.2516 18.1439ZM50.0412 18.4304L48.4291 17.2467L48.4291 17.2467L50.0412 18.4304ZM48.9033 23.6885L46.9461 24.0999L46.9461 24.0999L48.9033 23.6885ZM16.7527 30.2275C18.8964 29.1063 20.4265 27.0853 20.924 24.7177L17.0095 23.8951C16.7578 25.093 15.9836 26.1157 14.8988 26.683L16.7527 30.2275ZM9.24733 30.2275C11.5981 31.4569 14.4019 31.4569 16.7527 30.2275L14.8988 26.683C13.7094 27.3051 12.2906 27.3051 11.1012 26.683L9.24733 30.2275ZM5.07597 24.7177C5.57352 27.0853 7.10361 29.1063 9.24733 30.2275L11.1012 26.683C10.0164 26.1157 9.24222 25.093 8.99046 23.8951L5.07597 24.7177ZM4.94608 24.0997L5.07597 24.7177L8.99046 23.8951L8.86057 23.277L4.94608 24.0997ZM6.42909 17.2464C4.98282 19.2161 4.44352 21.7083 4.94608 24.0996L8.86057 23.277C8.59194 21.9988 8.88021 20.6667 9.65325 19.6139L6.42909 17.2464ZM6.63948 16.9599L6.42909 17.2464L9.65325 19.6139L9.86364 19.3274L6.63948 16.9599ZM13 13.7393C10.4881 13.7393 8.12619 14.9352 6.63948 16.9599L9.86364 19.3274C10.5967 18.329 11.7614 17.7393 13 17.7393V13.7393ZM19.3605 16.9599C17.8738 14.9352 15.5119 13.7393 13 13.7393V17.7393C14.2386 17.7393 15.4033 18.329 16.1364 19.3274L19.3605 16.9599ZM19.5709 17.2464L19.3605 16.9599L16.1364 19.3274L16.3467 19.6139L19.5709 17.2464ZM21.0539 24.0997C21.5565 21.7083 21.0172 19.2161 19.5709 17.2464L16.3467 19.6139C17.1198 20.6667 17.4081 21.9988 17.1394 23.277L21.0539 24.0997ZM20.924 24.7178L21.0539 24.0997L17.1394 23.277L17.0095 23.8951L20.924 24.7178ZM3.86667 40.9998C3.94031 40.9998 4 41.0595 4 41.1331H0C0 43.2687 1.73117 44.9998 3.86667 44.9998L3.86667 40.9998ZM15.3107 40.9998H3.86667L3.86667 44.9998H15.3107L15.3107 40.9998ZM19.7975 33.3801C16.5264 35.4721 14.2109 38.7779 13.3595 42.5606L17.2618 43.439C17.882 40.6836 19.5703 38.2735 21.9527 36.7498L19.7975 33.3801ZM18.491 36.0382C18.9327 36.2067 19.342 36.4281 19.7137 36.6932L22.0365 33.4367C21.3906 32.976 20.6803 32.5923 19.9171 32.3011L18.491 36.0382ZM18.0691 35.8772L18.491 36.0382L19.9171 32.3011L19.4953 32.1401L18.0691 35.8772ZM7.93089 35.8772C11.1955 34.6314 14.8045 34.6314 18.0691 35.8772L19.4952 32.1401C15.3122 30.5438 10.6878 30.5438 6.50476 32.1401L7.93089 35.8772ZM7.50905 36.0382L7.93088 35.8772L6.50476 32.1401L6.08292 32.301L7.50905 36.0382ZM4 41.1331C4 38.8715 5.39602 36.8445 7.50905 36.0382L6.08292 32.301C2.41999 33.6989 0 37.2126 0 41.1331H4ZM52.6894 45L64.1333 45V41L52.6894 41V45ZM46.0474 36.7499C48.4298 38.2737 50.118 40.6838 50.7382 43.4392L54.6406 42.5609C53.7892 38.7782 51.4737 35.4723 48.2027 33.3802L46.0474 36.7499ZM48.0829 32.3013C47.3197 32.5925 46.6095 32.9761 45.9637 33.4368L48.2864 36.6933C48.658 36.4283 49.0674 36.2069 49.509 36.0384L48.0829 32.3013ZM48.5048 32.1403L48.0829 32.3013L49.5091 36.0384L49.9309 35.8774L48.5048 32.1403ZM61.4952 32.1403C57.3122 30.544 52.6878 30.544 48.5048 32.1403L49.9309 35.8774C53.1955 34.6316 56.8045 34.6316 60.0691 35.8774L61.4952 32.1403ZM61.9171 32.3013L61.4952 32.1403L60.0691 35.8774L60.491 36.0384L61.9171 32.3013ZM68 41.1334C68 37.2128 65.58 33.6991 61.9171 32.3013L60.491 36.0384C62.604 36.8448 64 38.8717 64 41.1334H68ZM64.1333 45C66.2688 45 68 43.2689 68 41.1334H64C64 41.0597 64.0597 41 64.1333 41V45ZM53.1012 26.6832C52.0164 26.1159 51.2422 25.0933 50.9905 23.8953L47.076 24.718C47.5735 27.0855 49.1036 29.1065 51.2473 30.2277L53.1012 26.6832ZM56.8988 26.6832C55.7094 27.3053 54.2906 27.3053 53.1012 26.6832L51.2473 30.2277C53.5981 31.4572 56.4019 31.4572 58.7527 30.2277L56.8988 26.6832ZM59.0095 23.8953C58.7578 25.0933 57.9836 26.1159 56.8988 26.6832L58.7527 30.2277C60.8964 29.1065 62.4265 27.0855 62.924 24.718L59.0095 23.8953ZM59.1394 23.2772L59.0095 23.8953L62.924 24.718L63.0539 24.0999L59.1394 23.2772ZM58.3468 19.6141C59.1198 20.6669 59.4081 21.999 59.1394 23.2772L63.0539 24.0999C63.5565 21.7085 63.0172 19.2163 61.5709 17.2467L58.3468 19.6141ZM58.1364 19.3276L58.3468 19.6141L61.5709 17.2467L61.3605 16.9601L58.1364 19.3276ZM55 17.7395C56.2386 17.7395 57.4033 18.3292 58.1364 19.3276L61.3605 16.9601C59.8738 14.9354 57.5119 13.7395 55 13.7395V17.7395ZM51.8636 19.3276C52.5967 18.3292 53.7614 17.7395 55 17.7395V13.7395C52.4881 13.7395 50.1262 14.9354 48.6395 16.9601L51.8636 19.3276ZM51.6532 19.6141L51.8636 19.3276L48.6395 16.9601L48.4291 17.2467L51.6532 19.6141ZM50.8606 23.2772C50.5919 21.999 50.8802 20.6669 51.6532 19.6141L48.4291 17.2467C46.9828 19.2163 46.4435 21.7085 46.9461 24.0999L50.8606 23.2772ZM50.9905 23.8953L50.8606 23.2772L46.9461 24.0999L47.076 24.718L50.9905 23.8953Z" fill="#252525"/>
<path d="M49.8 49.0001L18.2 49.0001C16.4327 49.0001 15 47.5674 15 45.8C15 40.5035 18.2763 35.7592 23.2295 33.8832L24.0611 33.5682C30.4651 31.1428 37.5349 31.1428 43.9389 33.5682L44.7705 33.8832C49.7237 35.7592 53 40.5035 53 45.8C53 47.5674 51.5673 49.0001 49.8 49.0001Z" stroke="#252525" stroke-width="4" stroke-linecap="square" stroke-linejoin="round"/>
<path d="M29.1413 24.0779C32.1875 25.6591 35.8125 25.6591 38.8587 24.0779V24.0779C41.6604 22.6236 43.6633 19.9907 44.3172 16.9025L44.5219 15.936C45.1931 12.7662 44.4742 9.46071 42.5471 6.856L42.2168 6.40957C40.2894 3.80438 37.2407 2.26757 34 2.26757V2.26757C30.7593 2.26757 27.7106 3.80438 25.7832 6.40957L25.4529 6.85601C23.5258 9.46071 22.8069 12.7662 23.4781 15.936L23.6828 16.9025C24.3367 19.9907 26.3396 22.6236 29.1413 24.0779V24.0779Z" stroke="#252525" stroke-width="4" stroke-linecap="square" stroke-linejoin="round"/>
</svg>
