<svg width="72" height="46" viewBox="0 0 72 46" fill="none" xmlns="http://www.w3.org/2000/svg">
<path d="M16.6716 19.5573L17.304 17.6599C16.7969 17.4909 16.2433 17.5318 15.7666 17.7737C15.29 18.0155 14.9299 18.4381 14.7669 18.9472L16.6716 19.5573ZM22.7228 39.2863L22.3306 41.2474L22.3306 41.2474L22.7228 39.2863ZM34.7228 41.6863L35.1151 39.7251L35.1151 39.7251L34.7228 41.6863ZM37.8607 41.6863L37.4684 39.7251L37.4684 39.7251L37.8607 41.6863ZM49.8607 39.2863L49.4684 37.3251L49.4684 37.3251L49.8607 39.2863ZM55.8536 19.3822L57.7436 18.728C57.3852 17.6927 56.2605 17.1384 55.2211 17.4848L55.8536 19.3822ZM36.3162 25.8947L36.9487 27.792L36.3162 25.8947ZM35.6838 25.8947L36.3162 23.9973L35.6838 25.8947ZM18.2917 22.0001C18.2917 21.3577 18.392 20.7425 18.5762 20.1673L14.7669 18.9472C14.4578 19.9121 14.2917 20.9386 14.2917 22.0001H18.2917ZM18.2917 31.4416V22.0001H14.2917V31.4416H18.2917ZM23.1151 37.3251C20.3105 36.7642 18.2917 34.3017 18.2917 31.4416H14.2917C14.2917 36.2084 17.6564 40.3126 22.3306 41.2474L23.1151 37.3251ZM35.1151 39.7251L23.1151 37.3251L22.3306 41.2474L34.3306 43.6474L35.1151 39.7251ZM37.4684 39.7251C36.6917 39.8805 35.8918 39.8805 35.1151 39.7251L34.3306 43.6474C35.6252 43.9064 36.9583 43.9064 38.2529 43.6474L37.4684 39.7251ZM49.4684 37.3251L37.4684 39.7251L38.2529 43.6474L50.2529 41.2474L49.4684 37.3251ZM54.2917 31.4416C54.2917 34.3017 52.273 36.7642 49.4684 37.3251L50.2529 41.2474C54.9272 40.3126 58.2917 36.2084 58.2917 31.4416H54.2917ZM54.2917 22.0001V31.4416H58.2917V22.0001H54.2917ZM53.9636 20.0364C54.1757 20.6491 54.2917 21.3089 54.2917 22.0001H58.2917C58.2917 20.8576 58.0994 19.7558 57.7436 18.728L53.9636 20.0364ZM55.2211 17.4848L35.6838 23.9973L36.9487 27.792L56.4861 21.2796L55.2211 17.4848ZM35.6838 23.9973C35.889 23.9289 36.111 23.9289 36.3162 23.9973L35.0513 27.792C35.6671 27.9973 36.3329 27.9973 36.9487 27.792L35.6838 23.9973ZM36.3162 23.9973L17.304 17.6599L16.0391 21.4546L35.0513 27.792L36.3162 23.9973Z" fill="white"/>
<path d="M35.6838 2.10541C35.889 2.03699 36.111 2.03699 36.3162 2.10541L69.154 13.0513C70.0657 13.3552 70.0656 14.6448 69.154 14.9487L36.3162 25.8946C36.111 25.963 35.889 25.963 35.6838 25.8946L2.84604 14.9487C1.93435 14.6448 1.93435 13.3552 2.84605 13.0513L35.6838 2.10541Z" stroke="white" stroke-width="4" stroke-linecap="round" stroke-linejoin="round"/>
<path d="M35 13L12.077 19.5494C9.07184 20.408 7 23.1547 7 26.2801V32.5M6 44L7 32.5M7 32.5L8 44" stroke="white" stroke-width="4" stroke-linecap="round"/>
</svg>
