<svg width="60" height="60" viewBox="0 0 60 60" fill="none" xmlns="http://www.w3.org/2000/svg">
<rect x="2" y="2" width="24" height="24" rx="4" stroke="white" stroke-width="4" stroke-linecap="round"/>
<rect x="34" y="2" width="24" height="24" rx="4" stroke="white" stroke-width="4" stroke-linecap="round"/>
<rect x="2" y="34" width="24" height="24" rx="4" stroke="white" stroke-width="4" stroke-linecap="round"/>
<rect x="34" y="34" width="24" height="24" rx="2" stroke="white" stroke-width="4" stroke-linecap="round"/>
</svg>
