<svg width="44" height="50" viewBox="0 0 44 50" fill="none" xmlns="http://www.w3.org/2000/svg">
<path d="M40.9611 23.2635C42.3048 24.0313 42.3048 25.9687 40.9611 26.7365L4.99228 47.2901C3.65896 48.052 2 47.0893 2 45.5536L2 4.44636C2 2.91071 3.65897 1.94798 4.99228 2.70987L40.9611 23.2635Z" stroke="white" stroke-width="4" stroke-linecap="square" stroke-linejoin="round"/>
</svg>
